﻿{
  "dev": "postgres://postgres:Pa$$w0rd@localhost/powershoes",

  "test": {
    "driver": "sqlite3",
    "filename": ":memory:"
  },

  "prod": {
    "driver": "pg",
    "user": "postgres",
    "password": "Pa$$w0rd",
    "database": "powershoes"
  }
}
